C:\Users\franc\git\ads\backend\parser\src\main\java\com\owl\parser\Parser.java
C:\Users\franc\git\ads\backend\parser\src\main\java\com\owl\ApplicationParser.java
C:\Users\franc\git\ads\backend\parser\src\main\java\com\owl\parser\ParserImpl.java
C:\Users\franc\git\ads\backend\parser\src\main\java\com\owl\parser\ParserController.java
